<?xml version="1.0" encoding="UTF-8" standalone="no"?>
<!-- Created with Inkscape (http://www.inkscape.org/) -->

<svg
   xmlns:dc="http://purl.org/dc/elements/1.1/"
   xmlns:cc="http://creativecommons.org/ns#"
   xmlns:rdf="http://www.w3.org/1999/02/22-rdf-syntax-ns#"
   xmlns:svg="http://www.w3.org/2000/svg"
   xmlns="http://www.w3.org/2000/svg"
   xmlns:sodipodi="http://sodipodi.sourceforge.net/DTD/sodipodi-0.dtd"
   xmlns:inkscape="http://www.inkscape.org/namespaces/inkscape"
   width="151.34335mm"
   height="53.197052mm"
   viewBox="0 0 151.34335 53.197052"
   version="1.1"
   id="svg8"
   inkscape:version="0.92.3 (2405546, 2018-03-11)"
   sodipodi:docname="liberado.svg">
  <defs
     id="defs2" />
  <sodipodi:namedview
     id="base"
     pagecolor="#ffffff"
     bordercolor="#666666"
     borderopacity="1.0"
     inkscape:pageopacity="0.0"
     inkscape:pageshadow="2"
     inkscape:zoom="0.98994949"
     inkscape:cx="222.6529"
     inkscape:cy="72.940319"
     inkscape:document-units="mm"
     inkscape:current-layer="layer1-8"
     showgrid="false"
     showguides="true"
     inkscape:guide-bbox="true"
     inkscape:window-width="1299"
     inkscape:window-height="713"
     inkscape:window-x="67"
     inkscape:window-y="27"
     inkscape:window-maximized="1">
    <sodipodi:guide
       position="22.824515,27.140236"
       orientation="0,1"
       inkscape:locked="false"
       id="guide958" />
  </sodipodi:namedview>
  <metadata
     id="metadata5">
    <rdf:RDF>
      <cc:Work
         rdf:about="">
        <dc:format>image/svg+xml</dc:format>
        <dc:type
           rdf:resource="http://purl.org/dc/dcmitype/StillImage" />
        <dc:title></dc:title>
      </cc:Work>
    </rdf:RDF>
  </metadata>
  <g
     inkscape:label="Layer 1"
     inkscape:groupmode="layer"
     id="layer1"
     transform="translate(-25.818538,-67.551063)">
    <text
       xml:space="preserve"
       style="font-style:normal;font-variant:normal;font-weight:normal;font-stretch:normal;font-size:10.58333302px;line-height:1.25;font-family:montserrat;-inkscape-font-specification:montserrat;letter-spacing:0px;word-spacing:0px;fill:#000000;fill-opacity:1;stroke:none;stroke-width:0.26458332"
       x="-77.863091"
       y="123.8869"
       id="text817"><tspan
         sodipodi:role="line"
         id="tspan815"
         x="-77.863091"
         y="133.61397"
         style="stroke-width:0.26458332" /></text>
    <g
       inkscape:label="Layer 1"
       id="layer1-8"
       transform="translate(-60.072454,-67.800394)">
      <g
         id="g203">
        <path
           inkscape:connector-curvature="0"
           id="path195"
           d="m 91.084896,188.54851 c -3.67255,0 -5.193904,-1.52135 -5.193904,-2.99008 V 163.9806 c 0,-3.26059 2.992192,-3.24641 5.130001,-3.28862 3.015898,-0.0596 6.829307,0.028 13.696617,0.0632 6.56503,0.0336 14.70966,-0.26988 17.9257,-0.10999 1.50506,0.0748 3.68787,0.0748 3.68787,3.33541 0,4.56682 0,19.78444 1.6e-4,21.88294 6e-5,0.72792 -2.08594,2.68497 -3.63819,2.68497 z m 17.743754,-5.63893 c 0.9124,0 0.88691,-0.017 0.88691,-0.017 0,0 0.0255,-2.76523 0.0255,-5.83213 0,-2.66721 -1e-5,-3.20994 -1e-5,-4.8822 2.11896,-2.11896 1.6642,-4.47598 -0.0257,-6.20324 -1.95126,-1.99441 -5.04954,-1.98359 -7.03268,-0.0115 -1.8271,1.81692 -1.86844,4.35053 -0.005,6.21473 0,1.89398 0.0286,1.08029 0,5.00611 0,2.23587 3.7e-4,2.05648 0.0301,5.72479 l 3.30679,0.0178 2.08566,-0.0174 z M 89.900938,152.52747 c 0,-8.60879 0.56989,-10.54351 4.01924,-13.64477 3.1084,-2.79472 6.381922,-3.67603 13.046382,-3.51243 4.32174,0.10609 8.53888,2.37499 10.37282,5.18584 2.27642,3.48906 2.13334,7.67531 2.13334,7.67531 v 0 l -1.32478,0.0262 -0.97162,-0.0322 -1.78731,-0.0585 c -0.52246,-0.91636 0.13407,-5.19067 -4.18915,-6.79251 -4.38882,-1.7478 -11.467282,-0.51568 -13.993652,2.43582 -2.00202,2.3389 -2.12466,2.85733 -2.22882,9.42134 l -0.0934,5.88698 h -2.49154 -2.49153 z"
           style="fill:#000000;stroke-width:0.26458335"
           sodipodi:nodetypes="cccssscsccccccsscccccccscscccscccccccc" />
        <text
           xml:space="preserve"
           style="font-style:normal;font-variant:normal;font-weight:normal;font-stretch:normal;font-size:10.58333302px;line-height:1.25;font-family:montserrat;-inkscape-font-specification:montserrat;letter-spacing:0px;word-spacing:0px;fill:#000000;fill-opacity:1;stroke:none;stroke-width:0.26458332"
           x="132.80402"
           y="168.98824"
           id="text240"><tspan
             sodipodi:role="line"
             id="tspan238"
             x="132.80402"
             y="178.7153"
             style="stroke-width:0.26458332" /></text>
      </g>
      <flowRoot
         xml:space="preserve"
         id="flowRoot950"
         style="font-style:normal;font-variant:normal;font-weight:normal;font-stretch:normal;font-size:40px;line-height:1.25;font-family:'Montserrat ExtraBold';-inkscape-font-specification:'Montserrat ExtraBold, ';letter-spacing:0px;word-spacing:0px;fill:#000000;fill-opacity:1;stroke:none"><flowRegion
           id="flowRegion952"><rect
             id="rect954"
             width="189.28572"
             height="47.857143"
             x="300"
             y="314.66254" /></flowRegion><flowPara
           id="flowPara956"></flowPara></flowRoot>      <text
         xml:space="preserve"
         style="font-style:normal;font-variant:normal;font-weight:normal;font-stretch:normal;font-size:19.7555542px;line-height:1.25;font-family:Montserrat;-inkscape-font-specification:Montserrat;letter-spacing:0px;word-spacing:0px;fill:#000000;fill-opacity:1;stroke:none;stroke-width:0.26458332"
         x="138.64969"
         y="157.13197"
         id="text968"><tspan
           sodipodi:role="line"
           id="tspan966"
           x="138.64969"
           y="157.13197"
           style="font-style:normal;font-variant:normal;font-weight:normal;font-stretch:normal;font-family:Montserrat;-inkscape-font-specification:Montserrat;stroke-width:0.26458332">EQUIPO</tspan></text>
      <text
         xml:space="preserve"
         style="font-style:normal;font-variant:normal;font-weight:normal;font-stretch:normal;font-size:19.7555542px;line-height:1.25;font-family:Montserrat;-inkscape-font-specification:Montserrat;letter-spacing:0px;word-spacing:0px;fill:#000000;fill-opacity:1;stroke:none;stroke-width:0.26458332"
         x="131.16615"
         y="176.10809"
         id="text972"><tspan
           sodipodi:role="line"
           id="tspan970"
           x="131.16615"
           y="176.10809"
           style="font-style:normal;font-variant:normal;font-weight:normal;font-stretch:normal;font-family:Montserrat;-inkscape-font-specification:Montserrat;stroke-width:0.26458332">LIBERADO</tspan></text>
    </g>
    <flowRoot
       xml:space="preserve"
       id="flowRoot934"
       style="font-style:normal;font-variant:normal;font-weight:normal;font-stretch:normal;font-size:40px;line-height:1.25;font-family:montserrat;-inkscape-font-specification:montserrat;letter-spacing:0px;word-spacing:0px;fill:#000000;fill-opacity:1;stroke:none"
       transform="scale(0.26458333)"><flowRegion
         id="flowRegion936"><rect
           id="rect938"
           width="168.57143"
           height="65.714287"
           x="-328.57144"
           y="5.3768277" /></flowRegion><flowPara
         id="flowPara940"></flowPara></flowRoot>  </g>
</svg>
