<?xml version="1.0" encoding="UTF-8" standalone="no"?>
<!-- Created with Inkscape (http://www.inkscape.org/) -->

<svg
   xmlns:dc="http://purl.org/dc/elements/1.1/"
   xmlns:cc="http://creativecommons.org/ns#"
   xmlns:rdf="http://www.w3.org/1999/02/22-rdf-syntax-ns#"
   xmlns:svg="http://www.w3.org/2000/svg"
   xmlns="http://www.w3.org/2000/svg"
   xmlns:sodipodi="http://sodipodi.sourceforge.net/DTD/sodipodi-0.dtd"
   xmlns:inkscape="http://www.inkscape.org/namespaces/inkscape"
   width="23.80891mm"
   height="13.057307mm"
   viewBox="0 0 23.80891 13.057307"
   version="1.1"
   id="svg8"
   inkscape:version="0.92.3 (2405546, 2018-03-11)"
   sodipodi:docname="wom.svg">
  <defs
     id="defs2" />
  <sodipodi:namedview
     id="base"
     pagecolor="#ffffff"
     bordercolor="#666666"
     borderopacity="1.0"
     inkscape:pageopacity="0.0"
     inkscape:pageshadow="2"
     inkscape:zoom="4.7498178"
     inkscape:cx="45.996756"
     inkscape:cy="18.515898"
     inkscape:document-units="mm"
     inkscape:current-layer="g88"
     showgrid="false"
     inkscape:window-width="1299"
     inkscape:window-height="713"
     inkscape:window-x="67"
     inkscape:window-y="27"
     inkscape:window-maximized="1"
     inkscape:snap-page="true" />
  <metadata
     id="metadata5">
    <rdf:RDF>
      <cc:Work
         rdf:about="">
        <dc:format>image/svg+xml</dc:format>
        <dc:type
           rdf:resource="http://purl.org/dc/dcmitype/StillImage" />
        <dc:title></dc:title>
      </cc:Work>
    </rdf:RDF>
  </metadata>
  <g
     inkscape:label="Layer 1"
     inkscape:groupmode="layer"
     id="layer1"
     transform="translate(-3.9706224,-9.2572349)">
    <g
       id="g88"
       transform="matrix(0.26458333,0,0,0.26458333,1.0583826,0.96909767)">
      <g
         id="g73"
         style="fill:#3a1f4f">
	<path
   id="path67"
   d="m 100.79,55.43 c 0.42,0.77 0.181,1.36 -0.64,1.62 l -4.63,1.45 c -0.699,0.23 -1.31,0.04 -1.6,-0.6 L 86.6,42.39 c -0.199,-0.37 -0.52,-0.27 -0.47,0.14 l 2.5,17.031 c 0.101,0.699 -0.26,1.199 -0.96,1.42 l -3.35,1.049 c -0.69,0.221 -1.271,0.021 -1.59,-0.6 L 75.01,46.04 c -0.199,-0.37 -0.51,-0.27 -0.47,0.14 l 2.899,16.91 c 0.131,0.689 -0.27,1.2 -0.969,1.42 l -4.621,1.461 C 71.029,66.221 70.49,65.88 70.39,65.01 L 67.32,38.59 c -0.09,-0.7 0.27,-1.2 0.97,-1.42 l 5.479,-1.73 c 0.701,-0.22 1.24,0 1.601,0.61 l 5.149,8.89 c 0.201,0.36 0.51,0.27 0.471,-0.15 L 80.109,34.56 c -0.049,-0.71 0.271,-1.2 0.961,-1.42 l 5.49,-1.73 c 0.699,-0.22 1.27,-0.01 1.6,0.61 z"
   inkscape:connector-curvature="0" />

	<path
   id="path69"
   d="m 11.21,56.57 c -0.42,-0.77 -0.18,-1.36 0.64,-1.62 l 4.63,-1.45 c 0.7,-0.22 1.31,-0.03 1.6,0.6 l 7.32,15.52 c 0.2,0.36 0.51,0.26 0.47,-0.149 L 23.37,52.44 c -0.09,-0.7 0.26,-1.2 0.96,-1.42 l 3.34,-1.05 c 0.7,-0.22 1.28,-0.02 1.61,0.61 l 7.71,15.391 c 0.2,0.359 0.51,0.26 0.47,-0.15 l -2.9,-16.91 c -0.13,-0.69 0.27,-1.2 0.97,-1.42 l 4.63,-1.45 c 0.81,-0.26 1.35,0.08 1.45,0.95 l 3.07,26.43 c 0.09,0.689 -0.27,1.189 -0.97,1.41 l -5.48,1.73 c -0.7,0.219 -1.23,0 -1.6,-0.61 l -5.15,-8.89 c -0.2,-0.36 -0.51,-0.261 -0.47,0.149 l 0.88,10.24 c 0.05,0.71 -0.27,1.19 -0.97,1.409 l -5.48,1.73 c -0.7,0.221 -1.27,0.02 -1.6,-0.609 z"
   inkscape:connector-curvature="0" />

	<path
   id="path71"
   d="m 45.57,53.95 c -0.31,-2.73 -0.6,-10.2 8.62,-13.11 9.21,-2.9 10.589,4.23 10.9,6.96 l 1.17,10.31 c 0.311,2.721 0.6,10.201 -8.619,13.101 -9.21,2.899 -10.581,-4.229 -10.891,-6.95 z m 7.61,6.021 c 0.36,3.17 0.78,5.049 3.66,4.139 2.87,-0.899 2.85,-2.899 2.49,-6.08 l -0.68,-5.939 c -0.36,-3.18 -0.78,-5.06 -3.65,-4.15 -2.88,0.91 -2.85,2.91 -2.49,6.09 z"
   inkscape:connector-curvature="0"
   style="clip-rule:evenodd;fill-rule:evenodd" />

</g>
    </g>
  </g>
</svg>
